…
Below we look for 15 pages of articles on “Brexit”.

``` r
library(guardian)

# search for brexit articles
(to_search <- gd_search("brexit", pages = 15))
#> ℹ 15 calls

# actually execute 15 calls (1 per page)
(results <- gd_call(to_search))
#> ℹ Making 15 calls in 2 batches of 12
#> # A tibble: 150 x 11
#>    id    type  sectionId sectionName webPublicationD… webTitle webUrl
#>    <chr> <chr> <chr>     <chr>       <chr>            <chr>    <chr> 
#>  1 poli… arti… politics  Politics    2019-06-18T16:2… Brexit … https…
#>  2 poli… arti… politics  Politics    2019-06-24T16:5… Has Bre… https…
#>  3 poli… arti… politics  Politics    2019-06-20T17:2… The lim… https…
#>  4 poli… arti… politics  Politics    2019-06-23T17:0… Brexit … https…
#>  5 busi… arti… business  Business    2019-06-11T12:0… UK jobs… https…
#>  6 poli… arti… politics  Politics    2019-06-10T16:4… Corbyn,… https…
#>  7 poli… arti… politics  Politics    2019-06-06T17:0… Forgott… https…
#>  8 poli… arti… politics  Politics    2019-04-09T18:4… What ha… https…
#>  9 busi… arti… business  Business    2019-06-02T06:0… Corbyn’… https…
#> 10 poli… arti… politics  Politics    2019-05-30T17:0… Brexit … https…
#> # … with 140 more rows, and 4 more variables: apiUrl <chr>,
#> #   isHosted <lgl>, pillarId <chr>, pillarName <chr>
```
